[BDD]
2
-t 350
sample_input/option3/bit_shuffle16/bit_shuffle16_2_1_opt.dimacs
-i 33 34 35 36 39 40 41 42 45 46 51 52 59 60 63 64
-o 144 132 142 152 161 182 201 214 231 248 261 274 287 301 313 330
sample_input/option3/bit_shuffle16/bit_shuffle16_2_2_opt.dimacs
-i 3435 2937 2706 2611 2526 2421 2399 2388 2381 2366 2364 2369 2382 2393 2417 2514
-o 12959 12956 -12954 -12952 -12950 -12948 -12944 -12938 -12933 -12922 -12917 -12910 -12904 -12899 -12894 -12886