[BDD]
3
-t 1500
sample_input/option3/population_count_16bits/population_count_3_1_opt.dimacs
-i 17 18 21 22 26 27 28 29 33 34 38 39 40 41 45 46
-o 20 19 24 23 30 25 31 32 36 35 42 37 43 44 48 47
sample_input/option3/population_count_16bits/population_count_3_2_opt.dimacs
-i 17 21 18 22 25 29 26 30 33 36 34 37 41 45 42 46
-o 19 23 24 FALSE 27 32 31 FALSE 35 40 39 FALSE 43 47 48 FALSE
sample_input/option3/population_count_16bits/population_count_3_3_opt.dimacs
-i 33 36 40 57 34 37 41 58 42 50 59 67 43 51 60 68
-o 45 55 63 -72 -74 -73 FALSE FALSE FALSE FALSE FALSE FALSE FALSE FALSE FALSE FALSE