-52 -53 -54 -55 -56 -57 -58 -59 -86 -79 -109 0
-52 -53 -54 -55 56 -57 -58 -59 -86 -79 -109 0
-52 -53 -54 55 -56 -57 -58 -59 -86 -79 -109 0
-52 -53 -54 55 56 -57 -58 -59 -86 -79 -109 0
-52 -53 54 -55 -56 -57 -58 -59 -86 -79 -109 0
-52 -53 54 -55 56 -57 -58 -59 -86 -79 -109 0
-52 -53 54 55 -56 -57 -58 -59 -86 -79 -109 0
-52 -53 54 55 56 -57 -58 -59 -86 -79 -109 0
-52 53 -54 -55 -56 -57 -58 -59 -86 -79 -109 0
-52 53 -54 -55 56 -57 -58 -59 -86 -79 -109 0
-52 53 -54 55 -56 -57 -58 -59 -86 -79 -109 0
-52 53 -54 55 56 -57 -58 -59 -86 -79 -109 0
-52 53 54 -55 -56 -57 -58 -59 -86 -79 -109 0
-52 53 54 -55 56 -57 -58 -59 -86 -79 -109 0
-52 53 54 55 -56 -57 -58 -59 -86 -79 -109 0
-52 53 54 55 56 -57 -58 -59 -86 -79 -109 0
52 -53 -54 -55 -56 -57 -58 -59 -86 -79 -109 0
52 -53 -54 -55 56 -57 -58 -59 -86 -79 -109 0
52 -53 -54 55 -56 -57 -58 -59 -86 -79 -109 0
52 -53 -54 55 56 -57 -58 -59 -86 -79 -109 0
52 -53 54 -55 -56 -57 -58 -59 -86 -79 -109 0
52 -53 54 -55 56 -57 -58 -59 -86 -79 -109 0
52 -53 54 55 -56 -57 -58 -59 -86 -79 -109 0
52 -53 54 55 56 -57 -58 -59 -86 -79 -109 0
52 53 -54 -55 -56 -57 -58 -59 -86 -79 -109 0
52 53 -54 -55 56 -57 -58 -59 -86 -79 -109 0
52 53 -54 55 -56 -57 -58 -59 -86 -79 -109 0
52 53 -54 55 56 -57 -58 -59 -86 -79 -109 0
52 53 54 -55 -56 -57 -58 -59 -86 -79 -109 0
52 53 54 -55 56 -57 -58 -59 -86 -79 -109 0
52 53 54 55 -56 -57 -58 -59 -86 -79 -109 0
52 53 54 55 56 -57 -58 -59 -86 -79 -109 0
