-1384 -1385 -1388 -1389 -1392 -1393 -1394 -1399 -1402 -1403 -1406 -1410 -1415 -1418 -1422 -1424 -1429 -1433 -1436 -1437 -1440 -1442 -1446 -1450 -1452 -1453 -1454 -1455 -1456 -1457 -1458 -1469 -1890 -1892 -1896 -1898 -1901 -1906 -1910 -1911 -1915 -1922 -1923 -1927 -1934 -1938 -1943 -1945 -1950 -1952 -1956 -1960 -1961 -1967 -1968 -1971 -1973 1976 -1979 -1981 -1984 -1990 -1991 1994 -2502 -2504 -2507 -2510 -2514 -2518 -2519 -2524 -2525 -2533 -2537 -2539 -2542 -2545 -2551 -2556 -2558 -2566 -2568 -2570 -2573 -2576 -2578 -2583 -2587 -2589 -2591 -2595 -2601 -2604 -2606 2607 -2935 -2936 -2937 -2939 -2942 -2943 -2947 -2951 -2955 -2957 -2969 -2975 -2976 -2983 -2984 -2987 -2990 -3002 -3013 -3014 -3021 -3022 -3023 -3024 3025 -3026 -3027 -3028 -3029 -3030 -3031 -3042 -8634 -8659 -8681 8721 -8776 -8843 -8886 -8922 -8947 -8967 -8978 -8991 -9005 -9017 -9036 -9039 -9053 -9054 -9070 -9071 -9089 -9101 -9104 -9115 -9125 -9138 -9139 -9151 -9159 -9160 -9172 -9173 0
-1384 -1385 -1388 -1389 -1392 -1393 -1394 -1399 -1402 -1403 -1406 -1410 -1415 -1418 -1422 -1424 -1429 -1433 -1436 -1437 -1440 -1442 -1446 -1450 -1452 -1453 -1454 -1455 -1456 -1457 -1458 -1469 -1890 -1892 -1896 -1898 -1901 -1906 -1910 -1911 -1915 -1922 -1923 -1927 -1934 -1938 -1943 -1945 -1950 -1952 -1956 -1960 -1961 -1967 -1968 -1971 -1973 1976 -1979 -1981 -1984 -1990 -1991 1994 -2502 -2504 -2507 -2510 -2514 -2518 -2519 -2524 -2525 -2533 -2537 -2539 -2542 -2545 -2551 -2556 -2558 -2566 -2568 -2570 -2573 -2576 -2578 -2583 -2587 -2589 2591 -2595 -2601 -2604 -2606 -2607 -2935 -2936 -2937 -2939 -2942 -2943 -2947 -2951 -2955 -2957 -2969 -2975 -2976 -2983 -2984 -2987 -2990 -3002 -3013 -3014 -3021 -3022 -3023 -3024 -3025 -3026 -3027 -3028 3029 -3030 -3031 3042 -8634 -8659 -8681 8721 -8776 -8843 -8886 -8922 -8947 -8967 -8978 -8991 -9005 -9017 -9036 -9039 -9053 -9054 -9070 -9071 -9089 -9101 -9104 -9115 -9125 -9138 -9139 -9151 -9159 -9160 -9172 -9173 0
-1384 -1385 -1388 -1389 -1392 -1393 -1394 -1399 -1402 -1403 -1406 -1410 -1415 -1418 -1422 -1424 -1429 -1433 -1436 -1437 -1440 -1442 -1446 -1450 -1452 -1453 -1454 -1455 -1456 -1457 -1458 -1469 -1890 -1892 -1896 -1898 -1901 -1906 -1910 -1911 -1915 -1922 -1923 -1927 -1934 -1938 -1943 -1945 -1950 -1952 -1956 -1960 -1961 -1967 -1968 1971 -1973 -1976 -1979 -1981 -1984 -1990 -1991 -1994 -2502 -2504 -2507 -2510 -2514 -2518 -2519 -2524 -2525 -2533 -2537 -2539 -2542 -2545 -2551 -2556 -2558 -2566 -2568 -2570 -2573 -2576 -2578 -2583 -2587 -2589 -2591 -2595 -2601 -2604 -2606 -2607 -2935 -2936 -2937 -2939 -2942 -2943 -2947 -2951 -2955 -2957 -2969 -2975 -2976 -2983 -2984 -2987 -2990 -3002 -3013 -3014 -3021 -3022 -3023 -3024 3025 -3026 -3027 -3028 -3029 -3030 -3031 -3042 -8634 -8659 -8681 8721 -8776 -8843 -8886 -8922 -8947 -8967 -8978 -8991 -9005 -9017 -9036 -9039 -9053 -9054 -9070 -9071 -9089 -9101 -9104 -9115 -9125 -9138 -9139 -9151 -9159 -9160 -9172 -9173 0
-1384 -1385 -1388 -1389 -1392 -1393 -1394 -1399 -1402 -1403 -1406 -1410 -1415 -1418 -1422 -1424 -1429 -1433 -1436 -1437 -1440 -1442 -1446 -1450 -1452 -1453 -1454 -1455 -1456 -1457 -1458 -1469 -1890 -1892 -1896 -1898 -1901 -1906 -1910 -1911 -1915 -1922 -1923 -1927 -1934 -1938 -1943 -1945 -1950 -1952 -1956 -1960 -1961 -1967 -1968 1971 -1973 -1976 -1979 -1981 -1984 -1990 -1991 -1994 -2502 -2504 -2507 -2510 -2514 -2518 -2519 -2524 -2525 -2533 -2537 -2539 -2542 -2545 -2551 -2556 -2558 -2566 -2568 -2570 -2573 -2576 -2578 -2583 -2587 -2589 -2591 -2595 -2601 -2604 -2606 2607 -2935 -2936 -2937 -2939 -2942 -2943 -2947 -2951 -2955 -2957 -2969 -2975 -2976 -2983 -2984 -2987 -2990 -3002 -3013 -3014 -3021 -3022 -3023 -3024 -3025 -3026 -3027 -3028 3029 -3030 -3031 3042 -8634 -8659 -8681 8721 -8776 -8843 -8886 -8922 -8947 -8967 -8978 -8991 -9005 -9017 -9036 -9039 -9053 -9054 -9070 -9071 -9089 -9101 -9104 -9115 -9125 -9138 -9139 -9151 -9159 -9160 -9172 -9173 0
-1384 -1385 -1388 -1389 -1392 -1393 -1394 -1399 -1402 -1403 -1406 -1410 -1415 -1418 -1422 -1424 -1429 -1433 -1436 -1437 -1440 -1442 -1446 -1450 -1452 -1453 -1454 -1455 -1456 -1457 -1458 1469 -1890 -1892 -1896 -1898 -1901 -1906 -1910 -1911 -1915 -1922 -1923 -1927 -1934 -1938 -1943 -1945 -1950 -1952 -1956 -1960 -1961 -1967 -1968 -1971 -1973 1976 -1979 -1981 -1984 -1990 -1991 1994 -2502 -2504 -2507 -2510 -2514 -2518 -2519 -2524 -2525 -2533 -2537 -2539 -2542 -2545 -2551 -2556 -2558 -2566 -2568 -2570 -2573 -2576 -2578 -2583 -2587 -2589 -2591 -2595 -2601 -2604 -2606 -2607 -2935 -2936 -2937 -2939 -2942 -2943 -2947 -2951 -2955 -2957 -2969 -2975 -2976 -2983 -2984 -2987 -2990 -3002 -3013 -3014 -3021 -3022 -3023 -3024 3025 -3026 -3027 -3028 -3029 -3030 -3031 -3042 -8634 -8659 -8681 8721 -8776 -8843 -8886 -8922 -8947 -8967 -8978 -8991 -9005 -9017 -9036 -9039 -9053 -9054 -9070 -9071 -9089 -9101 -9104 -9115 -9125 -9138 -9139 -9151 -9159 -9160 -9172 -9173 0
-1384 -1385 -1388 -1389 -1392 -1393 -1394 -1399 -1402 -1403 -1406 -1410 -1415 -1418 -1422 -1424 -1429 -1433 -1436 -1437 -1440 -1442 -1446 -1450 -1452 -1453 -1454 -1455 -1456 -1457 -1458 1469 -1890 -1892 -1896 -1898 -1901 -1906 -1910 -1911 -1915 -1922 -1923 -1927 -1934 -1938 -1943 -1945 -1950 -1952 -1956 -1960 -1961 -1967 -1968 -1971 -1973 1976 -1979 -1981 -1984 -1990 -1991 1994 -2502 -2504 -2507 -2510 -2514 -2518 -2519 -2524 -2525 -2533 -2537 -2539 -2542 -2545 -2551 -2556 -2558 -2566 -2568 -2570 -2573 -2576 -2578 -2583 -2587 -2589 -2591 -2595 -2601 -2604 -2606 2607 -2935 -2936 -2937 -2939 -2942 -2943 -2947 -2951 -2955 -2957 -2969 -2975 -2976 -2983 -2984 -2987 -2990 -3002 -3013 -3014 -3021 -3022 -3023 -3024 -3025 -3026 -3027 -3028 3029 -3030 -3031 3042 -8634 -8659 -8681 8721 -8776 -8843 -8886 -8922 -8947 -8967 -8978 -8991 -9005 -9017 -9036 -9039 -9053 -9054 -9070 -9071 -9089 -9101 -9104 -9115 -9125 -9138 -9139 -9151 -9159 -9160 -9172 -9173 0
-1384 -1385 -1388 -1389 -1392 -1393 -1394 -1399 -1402 -1403 -1406 -1410 -1415 -1418 -1422 -1424 -1429 -1433 -1436 -1437 -1440 -1442 -1446 -1450 -1452 -1453 -1454 -1455 -1456 -1457 -1458 1469 -1890 -1892 -1896 -1898 -1901 -1906 -1910 -1911 -1915 -1922 -1923 -1927 -1934 -1938 -1943 -1945 -1950 -1952 -1956 -1960 -1961 -1967 -1968 1971 -1973 -1976 -1979 -1981 -1984 -1990 -1991 -1994 -2502 -2504 -2507 -2510 -2514 -2518 -2519 -2524 -2525 -2533 -2537 -2539 -2542 -2545 -2551 -2556 -2558 -2566 -2568 -2570 -2573 -2576 -2578 -2583 -2587 -2589 -2591 -2595 -2601 -2604 -2606 -2607 -2935 -2936 -2937 -2939 -2942 -2943 -2947 -2951 -2955 -2957 -2969 -2975 -2976 -2983 -2984 -2987 -2990 -3002 -3013 -3014 -3021 -3022 -3023 -3024 -3025 -3026 -3027 -3028 3029 -3030 -3031 3042 -8634 -8659 -8681 8721 -8776 -8843 -8886 -8922 -8947 -8967 -8978 -8991 -9005 -9017 -9036 -9039 -9053 -9054 -9070 -9071 -9089 -9101 -9104 -9115 -9125 -9138 -9139 -9151 -9159 -9160 -9172 -9173 0
-1384 -1385 -1388 -1389 -1392 -1393 -1394 -1399 -1402 -1403 -1406 -1410 -1415 -1418 -1422 -1424 -1429 -1433 -1436 -1437 -1440 -1442 -1446 -1450 -1452 -1453 -1454 -1455 1456 -1457 -1458 -1469 -1890 -1892 -1896 -1898 -1901 -1906 -1910 -1911 -1915 -1922 -1923 -1927 -1934 -1938 -1943 -1945 -1950 -1952 -1956 -1960 -1961 -1967 -1968 -1971 -1973 1976 -1979 -1981 -1984 -1990 -1991 1994 -2502 -2504 -2507 -2510 -2514 -2518 -2519 -2524 -2525 -2533 -2537 -2539 -2542 -2545 -2551 -2556 -2558 -2566 -2568 -2570 -2573 -2576 -2578 -2583 -2587 -2589 -2591 -2595 -2601 -2604 -2606 -2607 -2935 -2936 -2937 -2939 -2942 -2943 -2947 -2951 -2955 -2957 -2969 -2975 -2976 -2983 -2984 -2987 -2990 -3002 -3013 -3014 -3021 -3022 -3023 -3024 -3025 -3026 -3027 -3028 3029 -3030 -3031 3042 -8634 -8659 -8681 8721 -8776 -8843 -8886 -8922 -8947 -8967 -8978 -8991 -9005 -9017 -9036 -9039 -9053 -9054 -9070 -9071 -9089 -9101 -9104 -9115 -9125 -9138 -9139 -9151 -9159 -9160 -9172 -9173 0
