-1384 -1385 -1390 -1395 -1396 -1400 -1405 -1412 -1413 -1417 -1421 -1424 -1426 -1435 -1438 -1442 -1446 -1447 -1450 -1454 -1458 -1462 -1465 -1466 1471 -1472 -1476 -1478 -1482 -1483 1490 -1491 -1917 -1919 -1920 -1924 -1926 -1928 -1931 -1934 -1936 -1941 -1944 -1948 -1953 -1957 -1962 -1963 -1966 -1970 -1973 -1976 -1980 -1981 -1982 -1986 -1987 -1988 -1990 -1993 -1995 -1997 -1998 -2010 -2476 -2477 -2482 -2488 -2490 -2496 -2497 -2500 -2507 -2511 -2516 -2518 -2523 -2530 -2532 -2541 -2546 -2552 -2556 -2561 -2564 -2567 -2571 -2572 -2575 2578 -2579 -2587 -2588 -2592 -2595 2603 -2954 -2955 -2957 -2958 -2964 -2966 -2973 -2978 -2986 -2992 -2999 -3007 -3010 -3017 -3024 -3026 -3032 -3037 -3043 -3047 -3050 -3051 -3053 -3056 -3059 -3060 -3061 -3062 -3063 -3064 3072 -3084 -8635 -8660 -8683 8723 -8776 -8846 -8887 -8924 -8947 -8967 -8978 -8993 -9004 -9018 -9037 -9040 -9053 -9055 -9071 -9072 -9090 -9102 -9103 -9115 -9125 -9138 -9140 -9151 -9160 -9161 -9172 -9173 0
-1384 -1385 -1390 -1395 -1396 -1400 -1405 -1412 -1413 -1417 -1421 -1424 -1426 -1435 -1438 -1442 -1446 -1447 -1450 -1454 -1458 -1462 -1465 -1466 1471 -1472 -1476 -1478 -1482 -1483 1490 -1491 -1917 -1919 -1920 -1924 -1926 -1928 -1931 -1934 -1936 -1941 -1944 -1948 -1953 -1957 -1962 -1963 -1966 -1970 -1973 -1976 -1980 -1981 -1982 -1986 -1987 -1988 -1990 -1993 -1995 -1997 -1998 -2010 -2476 -2477 -2482 -2488 -2490 -2496 -2497 -2500 -2507 -2511 -2516 -2518 -2523 -2530 -2532 -2541 -2546 -2552 -2556 -2561 -2564 -2567 2571 -2572 -2575 -2578 -2579 -2587 -2588 -2592 -2595 -2603 -2954 -2955 -2957 -2958 -2964 -2966 -2973 -2978 -2986 -2992 -2999 -3007 -3010 -3017 -3024 -3026 -3032 -3037 -3043 -3047 -3050 -3051 -3053 -3056 -3059 -3060 -3061 -3062 -3063 -3064 -3072 3084 -8635 -8660 -8683 8723 -8776 -8846 -8887 -8924 -8947 -8967 -8978 -8993 -9004 -9018 -9037 -9040 -9053 -9055 -9071 -9072 -9090 -9102 -9103 -9115 -9125 -9138 -9140 -9151 -9160 -9161 -9172 -9173 0
-1384 -1385 -1390 -1395 -1396 -1400 -1405 -1412 -1413 -1417 -1421 -1424 -1426 -1435 -1438 -1442 -1446 -1447 -1450 -1454 -1458 -1462 -1465 -1466 1471 -1472 -1476 -1478 -1482 -1483 1490 -1491 -1917 -1919 -1920 -1924 -1926 -1928 -1931 -1934 -1936 -1941 -1944 -1948 -1953 -1957 -1962 -1963 -1966 -1970 -1973 -1976 -1980 -1981 -1982 -1986 -1987 -1988 -1990 -1993 -1995 -1997 -1998 2010 -2476 -2477 -2482 -2488 -2490 -2496 -2497 -2500 -2507 -2511 -2516 -2518 -2523 -2530 -2532 -2541 -2546 -2552 -2556 -2561 -2564 -2567 -2571 -2572 -2575 2578 -2579 -2587 -2588 -2592 -2595 2603 -2954 -2955 -2957 -2958 -2964 -2966 -2973 -2978 -2986 -2992 -2999 -3007 -3010 -3017 -3024 -3026 -3032 -3037 -3043 -3047 -3050 -3051 -3053 -3056 -3059 -3060 -3061 -3062 -3063 -3064 -3072 3084 -8635 -8660 -8683 8723 -8776 -8846 -8887 -8924 -8947 -8967 -8978 -8993 -9004 -9018 -9037 -9040 -9053 -9055 -9071 -9072 -9090 -9102 -9103 -9115 -9125 -9138 -9140 -9151 -9160 -9161 -9172 -9173 0
-1384 -1385 -1390 -1395 -1396 -1400 -1405 -1412 -1413 -1417 -1421 -1424 -1426 -1435 -1438 -1442 -1446 -1447 -1450 -1454 -1458 -1462 -1465 -1466 1471 -1472 -1476 -1478 -1482 -1483 1490 -1491 -1917 -1919 -1920 -1924 -1926 -1928 -1931 -1934 -1936 -1941 -1944 -1948 -1953 -1957 -1962 -1963 -1966 -1970 -1973 -1976 -1980 -1981 -1982 -1986 -1987 -1988 -1990 -1993 -1995 -1997 -1998 2010 -2476 -2477 -2482 -2488 -2490 -2496 -2497 -2500 -2507 -2511 -2516 -2518 -2523 -2530 -2532 -2541 -2546 -2552 -2556 -2561 -2564 -2567 2571 -2572 -2575 -2578 -2579 -2587 -2588 -2592 -2595 -2603 -2954 -2955 -2957 -2958 -2964 -2966 -2973 -2978 -2986 -2992 -2999 -3007 -3010 -3017 -3024 -3026 -3032 -3037 -3043 -3047 -3050 -3051 -3053 -3056 -3059 -3060 -3061 -3062 -3063 -3064 -3072 -3084 -8635 -8660 -8683 8723 -8776 -8846 -8887 -8924 -8947 -8967 -8978 -8993 -9004 -9018 -9037 -9040 -9053 -9055 -9071 -9072 -9090 -9102 -9103 -9115 -9125 -9138 -9140 -9151 -9160 -9161 -9172 -9173 0
-1384 -1385 -1390 -1395 -1396 -1400 -1405 -1412 -1413 -1417 -1421 -1424 -1426 -1435 -1438 -1442 -1446 -1447 -1450 -1454 -1458 -1462 -1465 -1466 1471 -1472 -1476 -1478 -1482 -1483 1490 -1491 -1917 -1919 -1920 -1924 -1926 -1928 -1931 -1934 -1936 -1941 -1944 -1948 -1953 -1957 -1962 -1963 -1966 -1970 -1973 -1976 -1980 -1981 -1982 -1986 -1987 -1988 -1990 -1993 1995 -1997 -1998 -2010 -2476 -2477 -2482 -2488 -2490 -2496 -2497 -2500 -2507 -2511 -2516 -2518 -2523 -2530 -2532 -2541 -2546 -2552 -2556 -2561 -2564 -2567 -2571 -2572 -2575 2578 -2579 -2587 -2588 -2592 -2595 2603 -2954 -2955 -2957 -2958 -2964 -2966 -2973 -2978 -2986 -2992 -2999 -3007 -3010 -3017 -3024 -3026 -3032 -3037 -3043 -3047 -3050 -3051 -3053 -3056 -3059 -3060 -3061 -3062 -3063 -3064 -3072 -3084 -8635 -8660 -8683 8723 -8776 -8846 -8887 -8924 -8947 -8967 -8978 -8993 -9004 -9018 -9037 -9040 -9053 -9055 -9071 -9072 -9090 -9102 -9103 -9115 -9125 -9138 -9140 -9151 -9160 -9161 -9172 -9173 0
-1384 -1385 -1390 -1395 -1396 -1400 -1405 -1412 -1413 -1417 -1421 -1424 -1426 -1435 -1438 -1442 -1446 -1447 -1450 -1454 -1458 -1462 1465 -1466 -1471 -1472 -1476 -1478 -1482 -1483 -1490 -1491 -1917 -1919 -1920 -1924 -1926 -1928 -1931 -1934 -1936 -1941 -1944 -1948 -1953 -1957 -1962 -1963 -1966 -1970 -1973 -1976 -1980 -1981 -1982 -1986 -1987 -1988 -1990 -1993 -1995 -1997 -1998 -2010 -2476 -2477 -2482 -2488 -2490 -2496 -2497 -2500 -2507 -2511 -2516 -2518 -2523 -2530 -2532 -2541 -2546 -2552 -2556 -2561 -2564 -2567 -2571 -2572 -2575 2578 -2579 -2587 -2588 -2592 -2595 2603 -2954 -2955 -2957 -2958 -2964 -2966 -2973 -2978 -2986 -2992 -2999 -3007 -3010 -3017 -3024 -3026 -3032 -3037 -3043 -3047 -3050 -3051 -3053 -3056 -3059 -3060 -3061 -3062 -3063 -3064 -3072 3084 -8635 -8660 -8683 8723 -8776 -8846 -8887 -8924 -8947 -8967 -8978 -8993 -9004 -9018 -9037 -9040 -9053 -9055 -9071 -9072 -9090 -9102 -9103 -9115 -9125 -9138 -9140 -9151 -9160 -9161 -9172 -9173 0
-1384 -1385 -1390 -1395 -1396 -1400 -1405 -1412 -1413 -1417 -1421 -1424 -1426 -1435 -1438 -1442 -1446 -1447 -1450 -1454 -1458 -1462 1465 -1466 -1471 -1472 -1476 -1478 -1482 -1483 -1490 -1491 -1917 -1919 -1920 -1924 -1926 -1928 -1931 -1934 -1936 -1941 -1944 -1948 -1953 -1957 -1962 -1963 -1966 -1970 -1973 -1976 -1980 -1981 -1982 -1986 -1987 -1988 -1990 -1993 -1995 -1997 -1998 -2010 -2476 -2477 -2482 -2488 -2490 -2496 -2497 -2500 -2507 -2511 -2516 -2518 -2523 -2530 -2532 -2541 -2546 -2552 -2556 -2561 -2564 -2567 2571 -2572 -2575 -2578 -2579 -2587 -2588 -2592 -2595 -2603 -2954 -2955 -2957 -2958 -2964 -2966 -2973 -2978 -2986 -2992 -2999 -3007 -3010 -3017 -3024 -3026 -3032 -3037 -3043 -3047 -3050 -3051 -3053 -3056 -3059 -3060 -3061 -3062 -3063 -3064 -3072 -3084 -8635 -8660 -8683 8723 -8776 -8846 -8887 -8924 -8947 -8967 -8978 -8993 -9004 -9018 -9037 -9040 -9053 -9055 -9071 -9072 -9090 -9102 -9103 -9115 -9125 -9138 -9140 -9151 -9160 -9161 -9172 -9173 0
-1384 -1385 -1390 -1395 -1396 -1400 -1405 -1412 -1413 -1417 -1421 -1424 -1426 -1435 -1438 -1442 -1446 -1447 -1450 -1454 -1458 -1462 1465 -1466 -1471 -1472 -1476 -1478 -1482 -1483 -1490 -1491 -1917 -1919 -1920 -1924 -1926 -1928 -1931 -1934 -1936 -1941 -1944 -1948 -1953 -1957 -1962 -1963 -1966 -1970 -1973 -1976 -1980 -1981 -1982 -1986 -1987 -1988 -1990 -1993 -1995 -1997 -1998 2010 -2476 -2477 -2482 -2488 -2490 -2496 -2497 -2500 -2507 -2511 -2516 -2518 -2523 -2530 -2532 -2541 -2546 -2552 -2556 -2561 -2564 -2567 -2571 -2572 -2575 2578 -2579 -2587 -2588 -2592 -2595 2603 -2954 -2955 -2957 -2958 -2964 -2966 -2973 -2978 -2986 -2992 -2999 -3007 -3010 -3017 -3024 -3026 -3032 -3037 -3043 -3047 -3050 -3051 -3053 -3056 -3059 -3060 -3061 -3062 -3063 -3064 -3072 -3084 -8635 -8660 -8683 8723 -8776 -8846 -8887 -8924 -8947 -8967 -8978 -8993 -9004 -9018 -9037 -9040 -9053 -9055 -9071 -9072 -9090 -9102 -9103 -9115 -9125 -9138 -9140 -9151 -9160 -9161 -9172 -9173 0
