185 187 -189 -191 -193 -195 -197 -199 -201 -203 -205 -207 -209 -211 -213 -215 -217 -219 -221 -223 -225 -227 -229 -231 -233 -235 -237 -239 -241 -243 -245 -247 649 651 -653 -655 -657 -659 -661 -663 -665 -667 -669 -671 -673 -675 -677 -679 -681 -683 -685 -687 -689 -691 -693 -695 -697 -699 -701 -703 -705 -707 -709 -711 -1113 -1115 -1117 -1119 -1121 -1123 -1125 -1127 -1129 -1131 -1133 -1135 -1137 -1139 -1141 -1143 -1145 -1147 -1149 -1151 -1153 -1155 -1157 -1159 -1161 -1163 -1165 -1167 -1169 -1171 -1173 -1175 -1577 1579 -1581 -1583 -1585 -1587 -1589 -1591 -1593 -1595 -1597 -1599 -1601 -1603 -1605 -1607 -1609 -1611 -1613 -1615 -1617 -1619 -1621 -1623 -1625 -1627 -1629 -1631 -1633 -1635 -1637 -1639 -8027 -8029 -8031 8033 -8035 -8037 -8039 -8041 -8043 -8045 -8047 -8049 -8051 -8053 -8055 -8057 -8059 -8061 -8063 -8065 -8067 -8069 -8071 -8073 -8075 -8077 -8079 -8081 -8083 -8085 -8087 -8089 0
185 187 -189 -191 -193 -195 -197 -199 -201 -203 -205 -207 -209 -211 -213 -215 -217 -219 -221 -223 -225 -227 -229 -231 -233 -235 -237 -239 -241 -243 -245 -247 -649 -651 653 -655 -657 -659 -661 -663 -665 -667 -669 -671 -673 -675 -677 -679 -681 -683 -685 -687 -689 -691 -693 -695 -697 -699 -701 -703 -705 -707 -709 -711 1113 -1115 -1117 -1119 -1121 -1123 -1125 -1127 -1129 -1131 -1133 -1135 -1137 -1139 -1141 -1143 -1145 -1147 -1149 -1151 -1153 -1155 -1157 -1159 -1161 -1163 -1165 -1167 -1169 -1171 -1173 -1175 -1577 -1579 -1581 -1583 -1585 -1587 -1589 -1591 -1593 -1595 -1597 -1599 -1601 -1603 -1605 -1607 -1609 -1611 -1613 -1615 -1617 -1619 -1621 -1623 -1625 -1627 -1629 -1631 -1633 -1635 -1637 -1639 -8027 -8029 -8031 8033 -8035 -8037 -8039 -8041 -8043 -8045 -8047 -8049 -8051 -8053 -8055 -8057 -8059 -8061 -8063 -8065 -8067 -8069 -8071 -8073 -8075 -8077 -8079 -8081 -8083 -8085 -8087 -8089 0
185 187 -189 -191 -193 -195 -197 -199 -201 -203 -205 -207 -209 -211 -213 -215 -217 -219 -221 -223 -225 -227 -229 -231 -233 -235 -237 -239 -241 -243 -245 -247 649 651 -653 -655 -657 -659 -661 -663 -665 -667 -669 -671 -673 -675 -677 -679 -681 -683 -685 -687 -689 -691 -693 -695 -697 -699 -701 -703 -705 -707 -709 -711 -1113 1115 -1117 -1119 -1121 -1123 -1125 -1127 -1129 -1131 -1133 -1135 -1137 -1139 -1141 -1143 -1145 -1147 -1149 -1151 -1153 -1155 -1157 -1159 -1161 -1163 -1165 -1167 -1169 -1171 -1173 -1175 -1577 -1579 -1581 -1583 -1585 -1587 -1589 -1591 -1593 -1595 -1597 -1599 -1601 -1603 -1605 -1607 -1609 -1611 -1613 -1615 -1617 -1619 -1621 -1623 -1625 -1627 -1629 -1631 -1633 -1635 -1637 -1639 -8027 -8029 -8031 8033 -8035 -8037 -8039 -8041 -8043 -8045 -8047 -8049 -8051 -8053 -8055 -8057 -8059 -8061 -8063 -8065 -8067 -8069 -8071 -8073 -8075 -8077 -8079 -8081 -8083 -8085 -8087 -8089 0
185 187 -189 -191 -193 -195 -197 -199 -201 -203 -205 -207 -209 -211 -213 -215 -217 -219 -221 -223 -225 -227 -229 -231 -233 -235 -237 -239 -241 -243 -245 -247 649 651 -653 -655 -657 -659 -661 -663 -665 -667 -669 -671 -673 -675 -677 -679 -681 -683 -685 -687 -689 -691 -693 -695 -697 -699 -701 -703 -705 -707 -709 -711 1113 -1115 -1117 -1119 -1121 -1123 -1125 -1127 -1129 -1131 -1133 -1135 -1137 -1139 -1141 -1143 -1145 -1147 -1149 -1151 -1153 -1155 -1157 -1159 -1161 -1163 -1165 -1167 -1169 -1171 -1173 -1175 1577 -1579 -1581 -1583 -1585 -1587 -1589 -1591 -1593 -1595 -1597 -1599 -1601 -1603 -1605 -1607 -1609 -1611 -1613 -1615 -1617 -1619 -1621 -1623 -1625 -1627 -1629 -1631 -1633 -1635 -1637 -1639 -8027 -8029 -8031 8033 -8035 -8037 -8039 -8041 -8043 -8045 -8047 -8049 -8051 -8053 -8055 -8057 -8059 -8061 -8063 -8065 -8067 -8069 -8071 -8073 -8075 -8077 -8079 -8081 -8083 -8085 -8087 -8089 0
185 187 -189 -191 -193 -195 -197 -199 -201 -203 -205 -207 -209 -211 -213 -215 -217 -219 -221 -223 -225 -227 -229 -231 -233 -235 -237 -239 -241 -243 -245 -247 -649 -651 653 -655 -657 -659 -661 -663 -665 -667 -669 -671 -673 -675 -677 -679 -681 -683 -685 -687 -689 -691 -693 -695 -697 -699 -701 -703 -705 -707 -709 -711 -1113 -1115 -1117 -1119 -1121 -1123 -1125 -1127 -1129 -1131 -1133 -1135 -1137 -1139 -1141 -1143 -1145 -1147 -1149 -1151 -1153 -1155 -1157 -1159 -1161 -1163 -1165 -1167 -1169 -1171 -1173 -1175 1577 -1579 -1581 -1583 -1585 -1587 -1589 -1591 -1593 -1595 -1597 -1599 -1601 -1603 -1605 -1607 -1609 -1611 -1613 -1615 -1617 -1619 -1621 -1623 -1625 -1627 -1629 -1631 -1633 -1635 -1637 -1639 -8027 -8029 -8031 8033 -8035 -8037 -8039 -8041 -8043 -8045 -8047 -8049 -8051 -8053 -8055 -8057 -8059 -8061 -8063 -8065 -8067 -8069 -8071 -8073 -8075 -8077 -8079 -8081 -8083 -8085 -8087 -8089 0
-185 -187 189 -191 -193 -195 -197 -199 -201 -203 -205 -207 -209 -211 -213 -215 -217 -219 -221 -223 -225 -227 -229 -231 -233 -235 -237 -239 -241 -243 -245 -247 -649 -651 653 -655 -657 -659 -661 -663 -665 -667 -669 -671 -673 -675 -677 -679 -681 -683 -685 -687 -689 -691 -693 -695 -697 -699 -701 -703 -705 -707 -709 -711 -1113 -1115 -1117 -1119 -1121 -1123 -1125 -1127 -1129 -1131 -1133 -1135 -1137 -1139 -1141 -1143 -1145 -1147 -1149 -1151 -1153 -1155 -1157 -1159 -1161 -1163 -1165 -1167 -1169 -1171 -1173 -1175 -1577 -1579 -1581 -1583 -1585 -1587 -1589 -1591 -1593 -1595 -1597 -1599 -1601 -1603 -1605 -1607 -1609 -1611 -1613 -1615 -1617 -1619 -1621 -1623 -1625 -1627 -1629 -1631 -1633 -1635 -1637 -1639 -8027 -8029 -8031 8033 -8035 -8037 -8039 -8041 -8043 -8045 -8047 -8049 -8051 -8053 -8055 -8057 -8059 -8061 -8063 -8065 -8067 -8069 -8071 -8073 -8075 -8077 -8079 -8081 -8083 -8085 -8087 -8089 0
-185 -187 189 -191 -193 -195 -197 -199 -201 -203 -205 -207 -209 -211 -213 -215 -217 -219 -221 -223 -225 -227 -229 -231 -233 -235 -237 -239 -241 -243 -245 -247 649 651 -653 -655 -657 -659 -661 -663 -665 -667 -669 -671 -673 -675 -677 -679 -681 -683 -685 -687 -689 -691 -693 -695 -697 -699 -701 -703 -705 -707 -709 -711 1113 -1115 -1117 -1119 -1121 -1123 -1125 -1127 -1129 -1131 -1133 -1135 -1137 -1139 -1141 -1143 -1145 -1147 -1149 -1151 -1153 -1155 -1157 -1159 -1161 -1163 -1165 -1167 -1169 -1171 -1173 -1175 -1577 -1579 -1581 -1583 -1585 -1587 -1589 -1591 -1593 -1595 -1597 -1599 -1601 -1603 -1605 -1607 -1609 -1611 -1613 -1615 -1617 -1619 -1621 -1623 -1625 -1627 -1629 -1631 -1633 -1635 -1637 -1639 -8027 -8029 -8031 8033 -8035 -8037 -8039 -8041 -8043 -8045 -8047 -8049 -8051 -8053 -8055 -8057 -8059 -8061 -8063 -8065 -8067 -8069 -8071 -8073 -8075 -8077 -8079 -8081 -8083 -8085 -8087 -8089 0
-185 -187 189 -191 -193 -195 -197 -199 -201 -203 -205 -207 -209 -211 -213 -215 -217 -219 -221 -223 -225 -227 -229 -231 -233 -235 -237 -239 -241 -243 -245 -247 649 651 -653 -655 -657 -659 -661 -663 -665 -667 -669 -671 -673 -675 -677 -679 -681 -683 -685 -687 -689 -691 -693 -695 -697 -699 -701 -703 -705 -707 -709 -711 -1113 -1115 -1117 -1119 -1121 -1123 -1125 -1127 -1129 -1131 -1133 -1135 -1137 -1139 -1141 -1143 -1145 -1147 -1149 -1151 -1153 -1155 -1157 -1159 -1161 -1163 -1165 -1167 -1169 -1171 -1173 -1175 1577 -1579 -1581 -1583 -1585 -1587 -1589 -1591 -1593 -1595 -1597 -1599 -1601 -1603 -1605 -1607 -1609 -1611 -1613 -1615 -1617 -1619 -1621 -1623 -1625 -1627 -1629 -1631 -1633 -1635 -1637 -1639 -8027 -8029 -8031 8033 -8035 -8037 -8039 -8041 -8043 -8045 -8047 -8049 -8051 -8053 -8055 -8057 -8059 -8061 -8063 -8065 -8067 -8069 -8071 -8073 -8075 -8077 -8079 -8081 -8083 -8085 -8087 -8089 0
