ApproxMC:1:0:0:0.00:1:61
ApproxMC:1:0:1:0.00:1:61
ApproxMC:1:0:2:0.00:1:61
ApproxMC:1:0:4:0.00:1:61
ApproxMC:1:0:8:0.00:0:12
ApproxMC:1:0:6:0.00:0:24
ApproxMC:1:0:5:0.01:0:52
ApproxMC:1:1:5:0.01:0:56
ApproxMC:1:1:4:0.00:1:61
ApproxMC:1:2:5:0.01:0:60
ApproxMC:1:2:4:0.00:1:61
ApproxMC:1:3:5:0.01:0:60
ApproxMC:1:3:4:0.01:1:61
ApproxMC:1:4:5:0.01:1:61
ApproxMC:1:4:6:0.00:0:33
ApproxMC:1:5:6:0.00:0:27
ApproxMC:1:5:5:0.01:0:48
ApproxMC:1:5:4:0.00:1:61
ApproxMC:1:6:5:0.01:0:58
ApproxMC:1:6:4:0.00:1:61
ApproxMC:1:7:5:0.01:0:58
ApproxMC:1:7:4:0.01:1:61
ApproxMC:1:8:5:0.01:0:59
ApproxMC:1:8:4:0.01:1:61
ApproxMC:1:9:5:0.01:1:61
ApproxMC:1:9:6:0.01:0:37
ApproxMC:1:10:6:0.01:0:30
ApproxMC:1:10:5:0.01:1:61
ApproxMC:1:11:6:0.01:0:35
ApproxMC:1:11:5:0.01:1:61
ApproxMC:1:12:6:0.01:0:30
ApproxMC:1:12:5:0.01:0:56
ApproxMC:1:12:4:0.01:1:61
ApproxMC:1:13:5:0.01:0:50
ApproxMC:1:13:4:0.01:1:61
ApproxMC:1:14:5:0.01:1:61
ApproxMC:1:14:6:0.00:0:27
ApproxMC:1:15:6:0.01:0:28
ApproxMC:1:15:5:0.01:0:59
ApproxMC:1:15:4:0.01:1:61
ApproxMC:1:16:5:0.01:0:51
ApproxMC:1:16:4:0.01:1:61
ApproxMC:1:17:5:0.01:0:59
ApproxMC:1:17:4:0.01:1:61
ApproxMC:1:18:5:0.01:1:61
ApproxMC:1:18:6:0.01:0:30
ApproxMC:1:19:6:0.01:0:14
ApproxMC:1:19:5:0.01:1:61
ApproxMC:1:20:6:0.01:0:32
ApproxMC:1:20:5:0.01:1:61
ApproxMC:1:21:6:0.01:0:28
ApproxMC:1:21:5:0.01:0:58
ApproxMC:1:21:4:0.01:1:61
ApproxMC:1:22:5:0.01:1:61
ApproxMC:1:22:6:0.01:0:32
ApproxMC:1:23:6:0.01:0:26
ApproxMC:1:23:5:0.01:1:61
ApproxMC:1:24:6:0.01:0:33
ApproxMC:1:24:5:0.01:0:60
ApproxMC:1:24:4:0.01:1:61
ApproxMC:1:25:5:0.01:1:61
ApproxMC:1:25:6:0.01:0:36
ApproxMC:1:26:6:0.01:0:29
ApproxMC:1:26:5:0.01:0:56
ApproxMC:1:26:4:0.01:1:61
ApproxMC:1:27:5:0.01:0:56
ApproxMC:1:27:4:0.01:1:61
ApproxMC:1:28:5:0.01:1:61
ApproxMC:1:28:6:0.01:0:29
ApproxMC:1:29:6:0.01:0:32
ApproxMC:1:29:5:0.01:0:59
ApproxMC:1:29:4:0.01:1:61
ApproxMC:1:30:5:0.01:0:58
ApproxMC:1:30:4:0.01:1:61
ApproxMC:1:31:5:0.01:1:61
ApproxMC:1:31:6:0.01:0:35
ApproxMC:1:32:6:0.01:0:28
ApproxMC:1:32:5:0.01:0:59
ApproxMC:1:32:4:0.01:1:61
ApproxMC:1:33:5:0.01:0:54
ApproxMC:1:33:4:0.01:1:61
ApproxMC:1:34:5:0.01:1:61
ApproxMC:1:34:6:0.01:0:28
ApproxMC:1:35:6:0.01:0:37
ApproxMC:1:35:5:0.01:1:61
ApproxMC:1:36:6:0.01:0:33
ApproxMC:1:36:5:0.02:0:54
ApproxMC:1:36:4:0.02:1:61
ApproxMC:1:37:5:0.02:1:61
ApproxMC:1:37:6:0.01:0:32
ApproxMC:1:38:6:0.01:0:31
ApproxMC:1:38:5:0.02:1:61
ApproxMC:1:39:6:0.01:0:23
ApproxMC:1:39:5:0.02:0:49
ApproxMC:1:39:4:0.02:1:61
ApproxMC:1:40:5:0.02:1:61
ApproxMC:1:40:6:0.02:0:45
ApproxMC:1:41:6:0.01:0:29
ApproxMC:1:41:5:0.02:1:61
ApproxMC:1:42:6:0.01:0:34
ApproxMC:1:42:5:0.02:1:61
ApproxMC:1:43:6:0.01:0:34
ApproxMC:1:43:5:0.02:1:61
ApproxMC:1:44:6:0.02:0:44
ApproxMC:1:44:5:0.02:1:61
ApproxMC:1:45:6:0.01:0:27
ApproxMC:1:45:5:0.02:0:54
ApproxMC:1:45:4:0.01:1:61
ApproxMC:1:46:5:0.02:1:61
ApproxMC:1:46:6:0.01:0:35
ApproxMC:1:47:6:0.01:0:31
ApproxMC:1:47:5:0.02:0:60
ApproxMC:1:47:4:0.02:1:61
ApproxMC:1:48:5:0.02:0:57
ApproxMC:1:48:4:0.02:1:61
ApproxMC:1:49:5:0.02:0:56
ApproxMC:1:49:4:0.02:1:61
ApproxMC:1:50:5:0.02:1:61
ApproxMC:1:50:6:0.01:0:33
ApproxMC:1:51:6:0.01:0:29
ApproxMC:1:51:5:0.01:0:50
ApproxMC:1:51:4:0.02:1:61
ApproxMC:1:52:5:0.02:0:59
ApproxMC:1:52:4:0.02:1:61
ApproxMC:1:53:5:0.02:1:61
ApproxMC:1:53:6:0.01:0:37
ApproxMC:1:54:6:0.01:0:36
ApproxMC:1:54:5:0.02:1:61
ApproxMC:1:55:6:0.01:0:34
ApproxMC:1:55:5:0.02:1:61
ApproxMC:1:56:6:0.01:0:25
ApproxMC:1:56:5:0.02:0:56
ApproxMC:1:56:4:0.01:1:61
ApproxMC:1:57:5:0.02:0:59
ApproxMC:1:57:4:0.02:1:61
ApproxMC:1:58:5:0.02:1:61
ApproxMC:1:58:6:0.01:0:32
ApproxMC:1:59:6:0.01:0:27
ApproxMC:1:59:5:0.02:0:57
ApproxMC:1:59:4:0.02:1:61
ApproxMC:1:60:5:0.02:1:61
ApproxMC:1:60:6:0.01:0:36
ApproxMC:1:61:6:0.01:0:32
ApproxMC:1:61:5:0.02:1:61
ApproxMC:1:62:6:0.01:0:35
ApproxMC:1:62:5:0.02:1:61
ApproxMC:1:63:6:0.01:0:32
ApproxMC:1:63:5:0.02:0:59
ApproxMC:1:63:4:0.02:1:61
ApproxMC:1:64:5:0.02:0:51
ApproxMC:1:64:4:0.02:1:61
ApproxMC:1:65:5:0.02:1:61
ApproxMC:1:65:6:0.01:0:35
ApproxMC:1:66:6:0.02:0:36
ApproxMC:1:66:5:0.02:1:61
ApproxMC:1:67:6:0.01:0:30
ApproxMC:1:67:5:0.01:1:61
ApproxMC:1:68:6:0.01:0:35
ApproxMC:1:68:5:0.02:1:61
ApproxMC:1:69:6:0.01:0:27
ApproxMC:1:69:5:0.02:0:59
ApproxMC:1:69:4:0.02:1:61
ApproxMC:1:70:5:0.02:0:55
ApproxMC:1:70:4:0.02:1:61
ApproxMC:1:71:5:0.03:0:57
ApproxMC:1:71:4:0.03:1:61
ApproxMC:1:72:5:0.03:0:57
ApproxMC:1:72:4:0.03:1:61
ApproxMC:1:73:5:0.03:1:61
ApproxMC:1:73:6:0.02:0:41
ApproxMC:1:74:6:0.02:0:32
ApproxMC:1:74:5:0.03:0:60
ApproxMC:1:74:4:0.03:1:61
ApproxMC:1:75:5:0.03:0:58
ApproxMC:1:75:4:0.03:1:61
ApproxMC:1:76:5:0.04:1:61
ApproxMC:1:76:6:0.02:0:29
ApproxMC:1:77:6:0.02:0:24
ApproxMC:1:77:5:0.03:0:60
ApproxMC:1:77:4:0.03:1:61
ApproxMC:1:78:5:0.03:0:59
ApproxMC:1:78:4:0.02:1:61
ApproxMC:1:79:5:0.03:1:61
ApproxMC:1:79:6:0.02:0:41
ApproxMC:1:80:6:0.01:0:33
ApproxMC:1:80:5:0.02:1:61
ApproxMC:1:81:6:0.02:0:38
ApproxMC:1:81:5:0.02:1:61
ApproxMC:1:82:6:0.01:0:29
ApproxMC:1:82:5:0.02:0:56
ApproxMC:1:82:4:0.02:1:61
ApproxMC:1:83:5:0.02:1:61
ApproxMC:1:83:6:0.01:0:33
ApproxMC:1:84:6:0.01:0:25
ApproxMC:1:84:5:0.02:0:59
ApproxMC:1:84:4:0.02:1:61
ApproxMC:1:85:5:0.03:1:61
ApproxMC:1:85:6:0.01:0:33
ApproxMC:1:86:6:0.01:0:26
ApproxMC:1:86:5:0.02:0:57
ApproxMC:1:86:4:0.02:1:61
ApproxMC:1:87:5:0.03:0:58
ApproxMC:1:87:4:0.02:1:61
ApproxMC:1:88:5:0.02:0:54
ApproxMC:1:88:4:0.02:1:61
ApproxMC:1:89:5:0.02:0:55
ApproxMC:1:89:4:0.02:1:61
ApproxMC:1:90:5:0.03:1:61
ApproxMC:1:90:6:0.02:0:35
ApproxMC:1:91:6:0.01:0:33
ApproxMC:1:91:5:0.02:0:60
ApproxMC:1:91:4:0.02:1:61
ApproxMC:1:92:5:0.03:1:61
ApproxMC:1:92:6:0.01:0:29
ApproxMC:1:93:6:0.02:0:29
ApproxMC:1:93:5:0.03:0:59
ApproxMC:1:93:4:0.03:1:61
ApproxMC:1:94:5:0.03:0:59
ApproxMC:1:94:4:0.02:1:61
ApproxMC:1:95:5:0.02:0:50
ApproxMC:1:95:4:0.02:1:61
ApproxMC:1:96:5:0.03:1:61
ApproxMC:1:96:6:0.01:0:31
ApproxMC:1:97:6:0.01:0:25
ApproxMC:1:97:5:0.03:0:58
ApproxMC:1:97:4:0.03:1:61
ApproxMC:1:98:5:0.03:1:61
ApproxMC:1:98:6:0.02:0:32
ApproxMC:1:99:6:0.02:0:32
ApproxMC:1:99:5:0.03:0:55
ApproxMC:1:99:4:0.03:1:61
ApproxMC:1:100:5:0.03:1:61
ApproxMC:1:100:6:0.01:0:29
ApproxMC:1:101:6:0.02:0:29
ApproxMC:1:101:5:0.03:0:57
ApproxMC:1:101:4:0.03:1:61
ApproxMC:1:102:5:0.03:0:56
ApproxMC:1:102:4:0.03:1:61
ApproxMC:1:103:5:0.02:0:47
ApproxMC:1:103:4:0.03:1:61
ApproxMC:1:104:5:0.03:0:54
ApproxMC:1:104:4:0.03:1:61
ApproxMC:1:105:5:0.03:1:61
ApproxMC:1:105:6:0.02:0:35
ApproxMC:1:106:6:0.02:0:35
ApproxMC:1:106:5:0.03:1:61
ApproxMC:1:107:6:0.01:0:25
ApproxMC:1:107:5:0.02:0:54
ApproxMC:1:107:4:0.03:1:61
ApproxMC:1:108:5:0.03:1:61
ApproxMC:1:108:6:0.02:0:32
ApproxMC:1:109:6:0.01:0:24
ApproxMC:1:109:5:0.03:0:54
ApproxMC:1:109:4:0.03:1:61
ApproxMC:1:110:5:0.03:0:60
ApproxMC:1:110:4:0.03:1:61
ApproxMC:1:111:5:0.03:0:56
ApproxMC:1:111:4:0.03:1:61
ApproxMC:1:112:5:0.03:0:58
ApproxMC:1:112:4:0.03:1:61
ApproxMC:1:113:5:0.03:1:61
ApproxMC:1:113:6:0.02:0:35
ApproxMC:1:114:6:0.02:0:42
ApproxMC:1:114:5:0.03:0:56
ApproxMC:1:114:4:0.03:1:61
ApproxMC:1:115:5:0.03:1:61
ApproxMC:1:115:6:0.02:0:39
ApproxMC:1:116:6:0.02:0:27
ApproxMC:1:116:5:0.03:1:61
ApproxMC:1:117:6:0.02:0:31
ApproxMC:1:117:5:0.03:1:61
ApproxMC:1:118:6:0.02:0:30
ApproxMC:1:118:5:0.03:1:61
ApproxMC:1:119:6:0.02:0:26
ApproxMC:1:119:5:0.03:0:55
ApproxMC:1:119:4:0.03:1:61
ApproxMC:1:120:5:0.04:0:59
ApproxMC:1:120:4:0.03:1:61
ApproxMC:1:121:5:0.04:0:59
ApproxMC:1:121:4:0.03:1:61
ApproxMC:1:122:5:0.03:0:58
ApproxMC:1:122:4:0.03:1:61
ApproxMC:1:123:5:0.03:1:61
ApproxMC:1:123:6:0.02:0:36
ApproxMC:1:124:6:0.02:0:29
ApproxMC:1:124:5:0.03:0:56
ApproxMC:1:124:4:0.03:1:61
ApproxMC:1:125:5:0.04:0:58
ApproxMC:1:125:4:0.03:1:61
ApproxMC:1:126:5:0.03:0:59
ApproxMC:1:126:4:0.03:1:61
ApproxMC:1:127:5:0.04:1:61
ApproxMC:1:127:6:0.02:0:33
ApproxMC:1:128:6:0.02:0:24
ApproxMC:1:128:5:0.04:1:61
ApproxMC:1:129:6:0.02:0:35
ApproxMC:1:129:5:0.04:1:61
ApproxMC:1:130:6:0.02:0:24
ApproxMC:1:130:5:0.04:1:61
ApproxMC:1:131:6:0.02:0:27
ApproxMC:1:131:5:0.03:0:55
ApproxMC:1:131:4:0.03:1:61
ApproxMC:1:132:5:0.04:1:61
ApproxMC:1:132:6:0.02:0:37
ApproxMC:1:133:6:0.03:0:41
ApproxMC:1:133:5:0.03:1:61
ApproxMC:1:134:6:0.02:0:28
ApproxMC:1:134:5:0.03:0:56
ApproxMC:1:134:4:0.03:1:61
ApproxMC:1:135:5:0.04:1:61
ApproxMC:1:135:6:0.02:0:27
ApproxMC:1:136:6:0.02:0:26
ApproxMC:1:136:5:0.03:0:54
ApproxMC:1:136:4:0.04:1:61
ApproxMC:1:137:5:0.04:1:61
ApproxMC:1:137:6:0.02:0:31
ApproxMC:1:138:6:0.02:0:29
ApproxMC:1:138:5:0.05:0:58
ApproxMC:1:138:4:0.05:1:61
ApproxMC:1:139:5:0.05:1:61
ApproxMC:1:139:6:0.04:0:37
