-2 -3 4 -5 -6 -7 -8 9 -10 -11 -12 -13 -14 15 -16 17 19 -20 -21 -23 -24 25 -27 -28 -29 -31 32 -33 0
-2 -3 4 -5 -6 -7 -8 9 -10 -11 -12 -13 14 -15 16 17 19 -20 -21 -23 -24 25 -27 -28 -29 -31 32 -33 0
-2 -3 4 -5 -6 -7 -8 9 -10 -11 -12 -13 14 15 16 -17 19 -20 -21 -23 -24 25 -27 -28 -29 -31 32 -33 0
-2 -3 4 -5 -6 7 -8 -9 -10 -11 -12 -13 -14 15 -16 17 19 -20 -21 -23 -24 25 -27 -28 -29 -31 32 -33 0
-2 -3 4 -5 -6 7 -8 -9 -10 -11 -12 -13 14 -15 16 17 19 -20 -21 -23 -24 25 -27 -28 -29 -31 32 -33 0
-2 -3 4 -5 -6 7 -8 -9 -10 -11 -12 -13 14 15 16 -17 19 -20 -21 -23 -24 25 -27 -28 -29 -31 32 -33 0
-2 -3 4 -5 6 -7 8 -9 -10 -11 -12 -13 -14 15 -16 17 19 -20 -21 -23 -24 25 -27 -28 -29 -31 32 -33 0
-2 -3 4 -5 6 -7 8 -9 -10 -11 -12 -13 14 -15 16 17 19 -20 -21 -23 -24 25 -27 -28 -29 -31 32 -33 0
-2 -3 4 -5 6 -7 8 -9 -10 -11 -12 -13 14 15 16 -17 19 -20 -21 -23 -24 25 -27 -28 -29 -31 32 -33 0
2 -3 -4 -5 -6 -7 -8 9 -10 -11 -12 -13 -14 15 -16 17 19 -20 -21 -23 -24 25 -27 -28 -29 -31 32 -33 0
2 -3 -4 -5 -6 -7 -8 9 -10 -11 -12 -13 14 -15 16 17 19 -20 -21 -23 -24 25 -27 -28 -29 -31 32 -33 0
2 -3 -4 -5 -6 -7 -8 9 -10 -11 -12 -13 14 15 16 -17 19 -20 -21 -23 -24 25 -27 -28 -29 -31 32 -33 0
2 -3 -4 -5 -6 7 -8 -9 -10 -11 -12 -13 -14 15 -16 17 19 -20 -21 -23 -24 25 -27 -28 -29 -31 32 -33 0
2 -3 -4 -5 -6 7 -8 -9 -10 -11 -12 -13 14 -15 16 17 19 -20 -21 -23 -24 25 -27 -28 -29 -31 32 -33 0
2 -3 -4 -5 -6 7 -8 -9 -10 -11 -12 -13 14 15 16 -17 19 -20 -21 -23 -24 25 -27 -28 -29 -31 32 -33 0
2 -3 -4 -5 6 -7 8 -9 -10 -11 -12 -13 -14 15 -16 17 19 -20 -21 -23 -24 25 -27 -28 -29 -31 32 -33 0
2 -3 -4 -5 6 -7 8 -9 -10 -11 -12 -13 14 -15 16 17 19 -20 -21 -23 -24 25 -27 -28 -29 -31 32 -33 0
2 -3 -4 -5 6 -7 8 -9 -10 -11 -12 -13 14 15 16 -17 19 -20 -21 -23 -24 25 -27 -28 -29 -31 32 -33 0
