Number of nodes      : 2050        
Number of edges      : 5979        
Number of proj vars  : 160         
#Projected Models    = 4
CPU time (count)     : 0.010613 s
CPU time (decompose) : 0.003887 s
0.014u 0.001s 0:00.25 4.0%	0+0k 0+16io 0pf+0w
